<?xml version="1.0" encoding="utf-8"?>
<svg viewBox="6.967 13.408000000000001 105 105" xmlns="http://www.w3.org/2000/svg">
  <g transform="matrix(1, 0, 0, 1, 116.900002, -9.620722)" id="g3032">
    <g transform="matrix(0.706752, 0, 0, 0.706752, -142.093002, 9.045913)" id="g3030" style="">
      <g id="g3024">
        <path id="path3006" d="m 102.6,32.8 85.6,59.5 c 1.6,0.8 1.6,2.8 0,3.5 l -85.7,59.3 c -1.5,0.8 -3.4,-0.2 -3.4,-1.8 L 99.2,34.5 c 0,-1.4 1.9,-2.5 3.4,-1.7 z" style="fill:#f5f5f5"/>
        <defs id="defs3011">
          <filter height="161.60001" width="239.10001" y="2.7" x="-36.900002" filterUnits="userSpaceOnUse" id="Adobe_OpacityMaskFilter">
            <feColorMatrix style="color-interpolation-filters:sRGB" id="feColorMatrix3008" result="source" values="-1 0 0 0 1  0 -1 0 0 1  0 0 -1 0 1  0 0 0 1 0" type="matrix"/>
          </filter>
        </defs>
        <mask id="SVGID_1_" height="161.6" width="239.1" y="2.7" x="-36.9" maskUnits="userSpaceOnUse">
          <g id="g3015" style="filter:url(#Adobe_OpacityMaskFilter)">
            <path id="path3013" d="m 102.6,32.8 85.6,59.5 c 1.6,0.8 1.6,2.8 0,3.5 l -85.7,59.3 c -1.5,0.8 -3.4,-0.2 -3.4,-1.8 L 99.2,34.5 c 0,-1.4 1.9,-2.5 3.4,-1.7 z"/>
          </g>
        </mask>
        <g id="g3022" mask="url(#SVGID_1_)">
          <polygon id="polygon3018" points="-36.9,69.9 85.5,91.9 202.3,70.2 202.3,2.7 85.5,24.4 -36.9,2.7 " style="fill:#b580c9"/>
          <polygon id="polygon3020" points="-36.9,142.3 85.5,164.3 202.3,142.6 202.3,82.7 85.5,104.5 -36.9,82.7 " style="fill:#734d75"/>
        </g>
      </g>
      <circle id="circle3026" r="14.5" cy="65.400002" cx="64.400002" style="fill:#17112d"/>
      <circle id="circle3028" r="14.5" cy="122.5" cx="64.400002" style="fill:#17112d"/>
    </g>
    <g transform="matrix(1.046111, 0, 0, 1.046111, -178.012741, -23.088394)" id="g3004" style=""/>
  </g>
</svg>