<?xml version="1.0" encoding="utf-8"?>
<!-- Generator: Adobe Illustrator 24.2.3, SVG Export Plug-In . SVG Version: 6.00 Build 0)  -->
<svg version="1.1" id="Calque_1" xmlns="http://www.w3.org/2000/svg" xmlns:xlink="http://www.w3.org/1999/xlink" x="0px" y="0px"
	 viewBox="0 0 387.9 418.5" style="enable-background:new 0 0 387.9 418.5;" xml:space="preserve">
<style type="text/css">
	.st0{fill:#FFFFFF;}
	.st1{fill:#263238;}
	.st2{fill:#BA68C8;}
	.st3{fill:#D48259;}
	.st4{fill:#B46439;}
	.st5{fill:#455A64;}
	.st6{opacity:0.4;}
	.st7{opacity:0.7;}
	.st8{opacity:0.3;}
	.st9{fill:#EB996E;}
	.st10{fill:#F5F5F5;}
	.st11{opacity:0.3;enable-background:new    ;}
	.st12{filter:url(#Adobe_OpacityMaskFilter);}
	.st13{mask:url(#SVGID_1_);}
	.st14{fill:#B580C9;}
	.st15{fill:#734D75;}
	.st16{fill:#17112D;}
</style>
<g id="freepik--speech-bubble--inject-76">
	<path class="st0" d="M286.3,165.9l9.3-6.2c4-19.7,23.1-32.4,42.8-28.5s32.4,23.1,28.5,42.8s-23.1,32.4-42.8,28.5
		c-14.8-3-26.3-14.9-28.7-29.8l0,0L286.3,165.9z"/>
	<path class="st1" d="M286.3,165.9l0.6,0.4l1.8,1.3c1.5,1.2,3.8,2.8,6.8,5l-0.2,0.1l0,0l0.1-0.8l0.1,0.8c1,5.9,3.4,11.5,7.1,16.2
		c1.1,1.5,2.4,2.9,3.8,4.1c1.5,1.4,3,2.6,4.7,3.7c16.5,11.1,38.9,6.8,50-9.7c0.6-0.9,1.2-1.8,1.7-2.8c2.8-5.1,4.4-10.8,4.5-16.6
		c0-0.7,0-1.5,0-2.2s-0.1-1.5-0.2-2.2l-0.1-1.1l-0.2-1.1l-0.4-2.1c-4.4-19.4-23.8-31.6-43.2-27.2c-3.9,0.9-7.6,2.4-11,4.5
		c-1.7,1.1-3.3,2.2-4.8,3.6c-1.4,1.3-2.7,2.6-3.9,4c-3.8,4.6-6.5,10-7.7,15.9l0,0l0,0l-6.9,4.5l-1.8,1.2L286.3,165.9l0.6-0.5
		l1.8-1.2l6.9-4.7l0,0.1c1.2-5.9,3.8-11.4,7.6-16.1c1.2-1.4,2.5-2.8,3.9-4.1c1.5-1.3,3.2-2.5,4.9-3.6c12.8-8,29.2-7.2,41.2,1.8
		c4.5,3.4,8.2,7.8,10.7,12.9c1.3,2.6,2.3,5.4,3,8.2l0.4,2.2l0.2,1.1l0.1,1.1c0.1,0.7,0.1,1.5,0.2,2.2s0,1.5,0,2.3
		c-0.1,5.9-1.7,11.7-4.5,16.9c-2.7,4.9-6.5,9.2-11.2,12.4c-8.5,5.8-19.1,7.8-29.1,5.5c-4.3-1-8.4-2.8-12.1-5.3
		c-1.7-1.1-3.3-2.4-4.7-3.8c-1.4-1.3-2.6-2.7-3.8-4.2c-3.7-4.8-6.1-10.4-7-16.4h0.2l0,0v0.2l-0.2-0.1l-6.7-5.2l-1.7-1.3L286.3,165.9
		z"/>
	<path class="st2" d="M345.4,164.3c-0.3-1.9-1.1-3.7-2.4-5.1c-1.2-1.4-2.8-2.4-4.7-2.9c-2-0.4-4,0-5.6,1.1c-1,0.7-1.8,1.6-2.3,2.6
		c-1.6-2.7-4.7-4.1-7.8-3.5c-1.8,0.4-3.5,1.4-4.7,2.9c-1.3,1.4-2.1,3.1-2.4,5c-0.3,2.4,0.2,4.9,1.4,7c1.4,2.2,3.3,3.9,5.5,5.2
		c3.6,2.2,8.3,4.9,8.3,4.9s4-3,7.7-5.1c2.2-1.2,4.1-3,5.5-5.1C345.1,169.1,345.6,166.7,345.4,164.3z"/>
</g>
<path class="st1" d="M181.3,55.9c-11.4,0.3-21.3,17.3-19.6,26.9c0.8,4.7,2.9,10-0.8,13.4s-11.6,3.1-15.1,6.6c0,0-4.6,4.5-4.1,10.4
	s-0.5,13.7-5.1,15.8l23.3,8.3c2.4-2.4,3.4-6.3,5.8-8.7c-2.8,2.6-5.4,11.6,7,12.6l7.7-6.8c21.2,5.4,43.4,12.2,60.3,3"/>
<path class="st2" d="M180.6,85.1c9.2-0.3,16.9,9,17.3,20.7s-6.7,21.5-15.9,21.8c-9.2,0.3-16.9-9-17.3-20.7
	C164.3,95.2,171.4,85.4,180.6,85.1z"/>
<path class="st1" d="M289,106.9c-1.5-4.4-4-8.5-5.1-13c-2.3-9.8,2.3-20.9-2.6-29.6c-3.5-6.2-10.8-9.2-17.6-11.1s-13.4-3.1-18.6-8
	c-3.8-3.6-6-8.6-9.8-12.2c-5.4-5.2-13.2-6.8-20.7-7.1c-7.6-0.3-15.5,0.5-22.3,4s-12.4,9.9-13.5,17.5c-0.5,3.7,0,7.6-1.1,11.1
	c-1.2,3.9-4.2,7-6,10.7c-3.8,8.1-1.6,17.8,5.3,23.4l53.7,66.8c11.1,4,23.2-10.1,31.5-18.4S292.9,118,289,106.9z"/>
<path class="st3" d="M178.3,83.9c1.9-15.4,13.3-33.8,28.6-31.3l47.4,15c4.7,0.8,7.1,4.5,6.8,9.2l-11.2,116.3l0.3,0.1
	c0,0-12.8,32.1-44.1,20.3c-6.2-2.3-9-0.2-9.9-7.3l0,0c-1.4-0.5,0,0,0-0.9c0.1-8.8,0.8-26.8,0.8-26.8l0,0c0.4-9.4,0.7-13.2,0.7-13.1
	s-19.6-4.4-22.1-30.5C174.3,122.1,176.2,101.1,178.3,83.9z"/>
<path class="st1" d="M219.7,108c-0.1,1.8,1.2,3.4,3,3.5c1.7,0.2,3.3-0.9,3.6-2.7c0,0,0-0.1,0-0.1c0.1-1.8-1.2-3.4-3-3.5
	C221.5,105,219.9,106.2,219.7,108C219.7,108,219.7,108,219.7,108z"/>
<path class="st1" d="M186,106c-0.1,1.8,1.2,3.4,3,3.5c1.7,0.2,3.3-1,3.6-2.7c0,0,0,0,0-0.1c0.1-1.8-1.2-3.4-3-3.5
	C187.9,103,186.3,104.2,186,106C186.1,105.9,186,106,186,106z"/>
<path class="st1" d="M181.3,95.7c0.4,0.6,3.4-1.4,7.3-0.9s6.4,3.1,6.9,2.6c0.2-0.2-0.1-1.3-1.2-2.4c-1.4-1.5-3.3-2.5-5.4-2.7
	c-2.1-0.2-4.1,0.2-5.9,1.4C181.7,94.5,181.1,95.4,181.3,95.7z"/>
<path class="st1" d="M216.6,99c0.5,0.6,3.5-1.7,7.6-1.6s7.1,2.4,7.6,1.9c0.2-0.2-0.2-1.2-1.5-2.3c-1.7-1.4-3.9-2.1-6-2.1
	c-2.2,0-4.3,0.6-6.1,1.9C216.8,97.8,216.4,98.7,216.6,99z"/>
<path class="st1" d="M202.7,123.5c0-0.2-2.2-0.7-5.7-1.4c-0.9-0.1-1.8-0.4-1.9-1c0-0.9,0.2-1.9,0.8-2.7c1-2.1,2-4.4,3.1-6.8
	c4.3-9.6,7.5-17.6,7.1-17.8s-4.2,7.5-8.5,17.1l-3,6.8c-0.4,1-1.1,2.1-0.7,3.5c0.2,0.7,0.8,1.2,1.4,1.4c0.5,0.2,1,0.3,1.5,0.3
	C200.4,123.6,202.7,123.7,202.7,123.5z"/>
<path class="st4" d="M197.7,165.5c12.1,0.9,24.3-1.6,35.1-7.2c0,0-9.8,18.4-35.5,14.4L197.7,165.5z"/>
<path class="st2" d="M203.7,132.2c1.5-1.6,3.7-2.4,5.9-2c1.6,0.2,3,1.1,3.9,2.4c0.9,1.3,0.9,3,0,4.3c-1,1.3-3.1,1.5-4.7,0.9
	c-1.6-0.7-3.1-1.7-4.4-3c-0.4-0.3-0.7-0.7-0.9-1.1c-0.2-0.4-0.2-0.9,0.1-1.3"/>
<path class="st1" d="M213,126.6c-0.6-0.1-0.8,3.8-4.3,6.4s-7.6,1.9-7.6,2.4c-0.1,0.2,0.9,0.8,2.6,0.9c2.3,0.2,4.5-0.5,6.4-1.8
	c1.8-1.3,3-3.2,3.3-5.3C213.7,127.6,213.3,126.6,213,126.6z"/>
<path class="st1" d="M216.7,86.9c0.3,1,3.9,0.7,8,1.5s7.5,2.1,8.1,1.3c0.3-0.4-0.3-1.4-1.6-2.4c-3.5-2.5-8.1-3.3-12.3-2.1
	C217.4,85.7,216.6,86.4,216.7,86.9z"/>
<path class="st1" d="M182.4,82.9c0.7,0.9,3.5,0.2,6.9,0.3s6.2,0.9,6.9,0.1c0.3-0.4-0.1-1.2-1.3-2.1c-1.7-1.1-3.6-1.6-5.5-1.7
	c-1.9-0.1-3.9,0.4-5.6,1.3C182.6,81.7,182.1,82.5,182.4,82.9z"/>
<path class="st1" d="M304.3,102c-2.4-4.5,2.3-9.5-1.5-13.7c-3.4-3.8-12.4-3.9-15.6-7.8c-2.5-3-2.6-3.8-2.7-6.6
	c-0.1-3.5-1.7-18.4-23.4-21.4l-3,13.5c-1.4-0.6-2.8-1.2-4.1-1.7c-17.7-6.5-36.1-10.8-54.8-12.9c-2.3,3.9,0,9.1,3.6,11.8
	c3.6,2.7,8.1,3.7,12.3,5.2s8.6,3.8,10.4,7.9c1.9,4.4,0.5,9.6,2.1,14.1c2.9,7.7,13.7,10,16.6,17.6c2.2,5.8-1.1,12.1-1.8,18.3
	c-0.8,7.1,1.8,14.1,7,19c4.1,3.8,11,10.6,11.5,9.2l58.2-36.4C322.3,109.9,307.6,108.1,304.3,102z"/>
<path class="st5" d="M238.7,123.9c0,0,4.5,14.6,5.8,21.6c0,0-8.2,26.1-45.9,20.1c-20.8-3.3-24.3-30.7-24.8-38.3l23.4-9.5
	L238.7,123.9z"/>
<path class="st1" d="M244.4,145.2c0,0-8.2,26.4-45.9,20.3c-7.6-1.2-12.8-5.6-16.5-11.1l27,8.2L244.4,145.2z"/>
<polygon class="st2" points="182.9,123.5 199.2,130.3 217.1,120.5 196.2,117.6 "/>
<polygon class="st2" points="173.8,127.2 202.1,142 236.4,123.3 217.1,120.5 199.2,130.3 182.9,123.5 "/>
<g class="st6">
	<polygon class="st0" points="173.8,127.2 202.1,142 236.4,123.3 217.1,120.5 200.1,129.8 185,122.7 	"/>
</g>
<path class="st2" d="M238.7,123.6l-2.3-0.3l-33.7,16.8l-28.9-12.8c0.3,4.3,1,8.6,2.1,12.8l30.1,13.2l35.8-18.9L238.7,123.6z"/>
<g class="st7">
	<path class="st0" d="M175.9,140l30.1,13.2l35.8-18.9l-3.1-10.8l-2.3-0.3l-33.7,16.8l-28.9-12.8l0,0
		C174,131.6,174.8,135.9,175.9,140z"/>
</g>
<path class="st1" d="M211.9,165.7c-0.1-0.1-0.2-0.3-0.3-0.4l-0.7-1.3c-0.6-1.1-1.5-2.7-2.5-4.8c-2.6-5.3-4.7-10.9-6.4-16.6
	c-1.7-5.7-3-11.5-3.8-17.3c-0.3-2.3-0.5-4.1-0.6-5.4c0-0.6-0.1-1.1-0.1-1.5c0-0.2,0-0.3,0-0.5c0.1,0.2,0.1,0.3,0.1,0.5
	c0.1,0.4,0.1,0.9,0.2,1.4c0.1,1.3,0.4,3.1,0.8,5.3c1.8,11.7,5.3,23.1,10.2,33.8c0.9,2.1,1.7,3.7,2.3,4.9c0.3,0.5,0.5,1,0.6,1.3
	C211.8,165.3,211.8,165.5,211.9,165.7z"/>
<g class="st8">
	<path d="M181.9,140.8c0,0,16.4,5.2,24.8,4.5s15.9-3.9,23-8.7C229.6,137.5,203.2,146.5,181.9,140.8z"/>
</g>
<path class="st5" d="M243.7,118.9c-0.6,1-1.4,2-2.3,2.8c-0.8,0.9-1.7,1.7-2.7,2.4c0.6-1,1.4-2,2.3-2.8
	C241.8,120.3,242.7,119.5,243.7,118.9z"/>
<path class="st5" d="M250,146.3c-1.9,0.1-3.8-0.2-5.6-0.9c0.9-0.1,1.9-0.1,2.8,0.2C248.2,145.7,249.1,145.9,250,146.3z"/>
<path class="st5" d="M291.7,134.4c0-0.1,0.1-0.3,0.1-0.4c0.2-0.4,0.3-0.8,0.4-1.2c0.4-1.5,0.5-3.1,0.2-4.7c-0.4-2.5-1.7-4.7-3.5-6.4
	c-1.1-1-2.5-1.8-4-2.2c-1.6-0.5-3.4-0.6-5.2-1.2c-0.9-0.3-1.8-0.8-2.5-1.5c-0.7-0.7-1.3-1.6-1.7-2.5c-0.7-2-1-4.2-0.8-6.3
	c0.2-2.2,0.3-4.5,0.1-6.7c-0.1-1.1-0.5-2.2-1.1-3.2c-0.6-1-1.5-1.9-2.5-2.5c-2.2-1.2-4.5-2.1-7-2.5c-2.6-0.5-5.1-1.4-7.4-2.8
	c-1.2-0.8-2.1-1.8-2.8-3c-0.7-1.2-1.1-2.6-1.4-3.9c-0.5-2.7-0.5-5.6-1-8.3c-1.1-5.4-4.8-9.9-10-11.9c-2.5-1-5.1-1-7.6-1.3
	c-1.3-0.1-2.6-0.3-3.8-0.7c-1.2-0.4-2.4-1-3.3-1.9c-1.8-1.8-2.4-4.3-3.2-6.4c-0.7-2.1-1.8-4.1-3.3-5.7c-2.7-3-6.4-4.9-10.4-5.3
	c-3.3-0.4-6.6,0.3-9.5,2c-2.2,1.3-4,3-5.5,5.1c-0.9,1.3-1.6,2.7-2.1,4.2c-0.2,0.5-0.3,0.9-0.3,1.2c0,0.1-0.1,0.3-0.1,0.4
	c0.1-0.6,0.2-1.1,0.4-1.6c0.4-1.5,1.1-3,2-4.3c1.4-2.1,3.3-3.9,5.5-5.2c2.9-1.7,6.3-2.5,9.7-2.1c4.1,0.5,7.9,2.4,10.7,5.4
	c1.5,1.7,2.7,3.7,3.5,5.9c0.8,2.2,1.4,4.6,3.1,6.3s4.3,2.3,6.8,2.5s5.2,0.3,7.8,1.3c5.3,2,9.2,6.7,10.4,12.3c0.5,2.8,0.5,5.6,1,8.3
	c0.2,1.3,0.7,2.6,1.3,3.8c0.6,1.1,1.6,2.1,2.6,2.8c4.4,2.9,10.1,2.5,14.4,5.3c1.1,0.7,1.9,1.6,2.6,2.6c0.6,1.1,1,2.2,1.2,3.4
	c0.2,2.3,0.1,4.5-0.1,6.8c-0.2,2.1,0,4.2,0.7,6.1c0.3,0.9,0.9,1.7,1.6,2.4c0.7,0.6,1.5,1.1,2.4,1.4c1.7,0.6,3.5,0.8,5.1,1.3
	c1.5,0.4,3,1.2,4.1,2.3c1.9,1.8,3.1,4.1,3.5,6.6c0.3,1.6,0.2,3.2-0.3,4.8c-0.1,0.4-0.3,0.8-0.5,1.2
	C291.9,134.2,291.8,134.3,291.7,134.4z"/>
<path class="st3" d="M94.3,47.5c0,0-52.3,70.8-49.7,95.5c2.1,19.5,83.6,65.9,83.6,65.9l18-40.7l-55.9-39l29.5-74.4L94.3,47.5z"/>
<path class="st3" d="M141.6,16.1c-1.8-2.9-5.9-0.7-5.9-0.7c-1.4-6.8-8.4-3.6-8.4-3.6c-2.7-6.9-9.1,0-9.1,0c-2.1-7.8-6.9-2-6.9-2
	c-4.6-4.6-8.4,8.7-8.4,8.7c-4.2,6-8.8,28.9-8.8,28.9l20.6,19.5c0,0,6.9-17.5,9.9-17.9c3.3-0.4,6.2-2.2,8.2-4.8l10.6-16.9
	C143.4,27.3,143.4,19,141.6,16.1z"/>
<path class="st9" d="M109.8,35.8c0,0,0-0.2,0.1-0.4c0.2-0.4,0.4-0.8,0.6-1.2c0.7-1.3,1.7-2.6,2.9-3.6c3.6-3.3,9-3.6,13-0.8
	c0.8,0.5,1.5,1.1,2.1,1.8l-0.4,0.1c1.7-3.7,3.3-5.1,6.8-5.7l-0.2,0.3c-0.6-2.4-0.6-5,0-7.4c0.2-0.7,0.4-1.3,0.6-1.9
	c0.1-0.2,0.2-0.4,0.3-0.6c0.1,0-0.3,0.9-0.7,2.6c-0.5,2.4-0.4,4.8,0.2,7.2l0.1,0.3H135c-2.9,0.7-5.3,2.7-6.5,5.5l-0.1,0.3l-0.2-0.3
	c-0.6-0.6-1.3-1.2-2-1.7c-3.8-2.7-9-2.5-12.6,0.6c-1.1,1-2.1,2.1-2.9,3.3C110.1,35.2,109.9,35.8,109.8,35.8z"/>
<path class="st9" d="M118.4,12.9c-0.1,0.6-0.3,1.1-0.5,1.6c-0.9,2.4-2,4.7-3.5,6.8c-0.6,1.1-1.6,1.8-2.8,2.1
	c-0.7,0.1-1.4-0.3-1.8-0.8c-0.4-0.7-0.6-1.4-0.5-2.2c0.1-1.5,0.4-2.9,0.7-4.4c0.4-1.6,0.8-3.2,1.4-4.8l0.5,0.3
	c-0.7,2.1-1.6,4.1-2.6,6c-0.6,0.8-1.3,1.6-2,2.2c-0.6,0.7-0.8,1.2-1.5,1.3c-0.6,0.2-1.3,0-1.8-0.4c-0.4-0.4-0.6-0.9-0.5-1.5
	c0.1-0.9,0.6-1.1,0.6-1.1c-0.3,0.3-0.4,0.7-0.4,1.1c0,0.5,0.2,0.9,0.5,1.2c0.4,0.4,1,0.5,1.6,0.3c1.2-0.3,2.2-1.8,3.2-3.5
	c1-1.9,1.8-3.9,2.5-6l0.5,0.3c-0.6,1.5-1,3.1-1.4,4.7c-0.3,1.4-0.6,2.8-0.7,4.3c-0.1,0.6,0.1,1.3,0.4,1.8c0.3,0.4,0.8,0.7,1.3,0.6
	c1.1-0.2,2-0.8,2.5-1.8c0.6-0.8,1.2-1.7,1.7-2.6c0.8-1.3,1.4-2.6,2-4C118,14,118.2,13.5,118.4,12.9z"/>
<path class="st9" d="M126.8,13.7c-0.1,0.4-0.3,0.8-0.5,1.1l-1.6,2.9c-0.7,1.2-1.5,2.7-2.6,4.3c-0.5,0.8-1.1,1.6-1.7,2.4
	c-0.7,0.9-1.7,1.6-2.7,2c-0.4,0.2-0.8,0.2-1.2,0c-0.5-0.2-0.9-0.7-1.2-1.2c-0.4-1-0.4-2.2-0.2-3.2c0.2-0.9,0.5-1.8,0.8-2.6
	c0.3-0.8,0.5-1.5,0.8-2.2c0.5-1.4,0.9-2.5,1.2-3.2c0.1-0.4,0.3-0.8,0.5-1.1c0,0.4-0.2,0.8-0.3,1.2c-0.2,0.8-0.6,1.9-1,3.3
	c-0.2,0.7-0.5,1.5-0.7,2.3c-0.3,0.8-0.5,1.7-0.7,2.6c-0.2,0.9-0.2,1.9,0.1,2.8c0.3,0.8,1.3,1.3,2.1,0.9c0.9-0.4,1.6-1.1,2.1-1.9
	c0.6-0.8,1.2-1.6,1.7-2.3c1-1.5,1.9-3,2.6-4.2s1.3-2.2,1.8-2.8C126.2,14.4,126.5,14,126.8,13.7z"/>
<path class="st9" d="M135.2,16.8c-0.2,0.4-0.5,0.8-0.7,1.1c-0.6,0.8-1.3,1.7-2.1,2.8l-3.2,4.2c-0.6,0.8-1.3,1.6-2.1,2.3
	c-0.8,0.8-2,1.2-3.1,1c-0.6-0.1-1.2-0.5-1.5-0.9c-0.4-0.5-0.6-1.1-0.7-1.7c-0.1-1.1,0-2.3,0.4-3.3c0.7-1.7,1.4-3.4,2.3-5
	c0.7-1.3,1.4-2.4,1.9-3.1c0.2-0.4,0.5-0.7,0.8-1c0.1,0.1-0.9,1.6-2.3,4.4c-0.8,1.6-1.5,3.3-2.2,4.9c-0.4,1-0.5,2-0.4,3
	c0.1,1,0.8,1.9,1.8,2.2c1,0.2,1.5-0.3,2.3-0.9c0.9-0.7,1.7-1.4,2.4-2.2l3.3-4.1l2.3-2.7C134.6,17.4,134.9,17.1,135.2,16.8z"/>
<path class="st9" d="M108.2,55c-1.4-0.5-2.6-1.2-3.8-2.1c-1.8-1.3-2.7-2.4-2.6-2.6c1.2,0.5,2.3,1.2,3.4,2.1
	C106.3,53.1,107.4,54,108.2,55z"/>
<path class="st9" d="M90.3,129.2c0,0.1-1.3-0.4-3.4-0.8c-5.5-1.1-11.2-0.4-16.4,1.8c-2,0.8-3.1,1.6-3.2,1.5c0.2-0.2,0.5-0.4,0.8-0.6
	c0.7-0.5,1.5-0.9,2.3-1.2c5.2-2.4,11-3,16.6-1.7c0.8,0.2,1.7,0.4,2.5,0.7C89.7,129,90,129.1,90.3,129.2z"/>
<path class="st2" d="M125.1,215.9c-2.4,36.4-23,47.9-38.8,64.6c-5.3,5.6-10,11.7-14,18.2c-10.2,16.5-1.9,51.4-10.7,68.7
	c-4.8,9.4-14.2,15.3-22,22.4s-11.4,17.5-11.6,28h25l118.1,0.5L234.8,213L125.1,215.9z"/>
<path class="st0" d="M150.1,216.4c-2.5,36.4-23,47.9-38.8,64.6c-5.3,5.6-10,11.7-14.1,18.2c-10.2,16.5-1.9,51.4-10.7,68.7
	c-4.8,9.4-14.2,15.3-22,22.4s-11.4,17-11.5,27.6H28c0.1-10.6,3.7-20.5,11.5-27.6s17.2-13,22-22.4c8.9-17.3,1.1-53.2,10.3-70.4
	c4.1-7.6,7.1-11.3,12.5-17c15.8-16.7,38.3-27.8,40.8-64.2L150.1,216.4z"/>
<path class="st1" d="M123.8,225c0,0,0,0.2-0.1,0.6s-0.1,1-0.3,1.9c-0.4,2.4-1.1,4.8-2,7.1l0,0c-0.6,2.4-1.4,4.8-2.4,7.1
	c-1.3,2.9-2.9,5.6-4.7,8.2c-3.9,5.6-9.6,11.4-15.9,17.6c-3.2,3.1-6.6,6.2-10.2,9.5c-3.7,3.4-7.2,7-10.3,10.9
	c-1.6,2.1-3.1,4.3-4.4,6.5c-1.3,2.4-2.4,4.8-3.3,7.4c-1.8,5.3-2.9,10.8-3.3,16.4c-0.7,7.7-0.6,15.3-0.8,22.6s-0.6,14.5-2.6,21
	c-0.9,3.2-2.3,6.2-4.1,9c-1.7,2.6-3.8,4.9-6.1,7c-4.3,4.1-8.6,7.7-12.3,11.1c-1.8,1.7-3.7,3.4-5.2,5.1c-1.4,1.6-2.6,3.4-3.6,5.3
	c-1.6,3.1-2.7,6.3-3.4,9.7c-0.5,2.1-0.7,4.3-0.8,6.5c0,0.8,0,1.3,0,1.7s0,0.6,0,0.6c0-0.8,0-1.5,0-2.3c0.1-2.2,0.3-4.4,0.8-6.5
	c0.6-3.4,1.7-6.7,3.2-9.8c1-1.9,2.2-3.8,3.6-5.4c1.5-1.7,3.3-3.4,5.2-5.1c3.7-3.5,8-7,12.3-11.2c2.3-2.1,4.3-4.4,6-7
	c1.8-2.7,3.1-5.7,4-8.9c1.9-6.4,2.3-13.5,2.5-20.8s0.2-14.9,0.8-22.7c0.4-5.6,1.6-11.2,3.4-16.5c0.9-2.6,2-5.1,3.3-7.4
	c1.3-2.3,2.8-4.5,4.4-6.6c3.2-3.9,6.7-7.6,10.4-11c3.6-3.3,7-6.4,10.2-9.5c6.4-6.2,12-11.9,15.9-17.5c1.8-2.5,3.4-5.2,4.7-8.1
	c1-2.3,1.8-4.7,2.4-7.1l0,0c0.9-2.3,1.6-4.7,2.1-7.1c0.2-0.8,0.3-1.5,0.4-1.9S123.8,225,123.8,225z"/>
<g class="st7">
	<path class="st0" d="M175.1,216.4c-2.5,36.4-23,47.9-38.8,64.6c-5.3,5.6-10,11.7-14,18.2c-10.2,16.5-1.9,51.4-10.7,68.7
		c-4.8,9.4-14.2,15.3-22,22.4s-11.4,17-11.5,27.6H53c0.1-10.6,3.7-20.5,11.5-27.6s17.2-13,22-22.4c8.9-17.3,0.5-52.2,10.7-68.7
		c4-6.5,8.7-12.6,14.1-18.2c15.8-16.7,36.3-28.2,38.8-64.6L175.1,216.4z"/>
</g>
<g class="st6">
	<path class="st0" d="M200.2,216.4c-2.5,36.4-23,47.9-38.8,64.6c-5.3,5.6-10,11.7-14,18.2c-10.2,16.5-1.9,51.4-10.7,68.7
		c-4.8,9.4-14.2,15.3-22,22.4s-11.4,17.1-11.5,27.6h-25c0.1-10.5,3.7-20.5,11.5-27.6s17.2-13,22-22.4c8.9-17.3,0.5-52.2,10.7-68.7
		c4-6.5,8.7-12.6,14-18.2c15.8-16.7,36.3-28.2,38.8-64.6H200.2z"/>
</g>
<path class="st1" d="M129.9,363.1c-0.2,0.1-0.4,0.2-0.7,0.3l-2,0.7c-1.7,0.6-4.2,1.5-7.3,2.6c-6.2,2.1-14.7,4.9-24.3,7.7
	s-18.3,5-24.6,6.5c-3.2,0.8-5.7,1.3-7.5,1.7l-2,0.4c-0.2,0.1-0.5,0.1-0.7,0.1c0.2-0.1,0.5-0.2,0.7-0.2l2-0.5l7.5-1.9
	c6.3-1.6,15-3.9,24.5-6.6s18.1-5.5,24.3-7.5l7.3-2.4l2-0.6C129.4,363.2,129.6,363.1,129.9,363.1z"/>
<path class="st1" d="M122.5,360.7c-0.6,0.1-1.1,0.2-1.7,0.2c-1.1,0.1-2.7,0.1-4.6,0.2c-3.9,0.1-9.3,0-15.3-0.4s-11.3-1.1-15.2-1.7
	c-1.9-0.3-3.5-0.6-4.6-0.8c-0.6-0.1-1.1-0.2-1.7-0.4c0.6,0,1.1,0.1,1.7,0.2l4.6,0.6c3.9,0.5,9.2,1.1,15.1,1.5s11.3,0.5,15.2,0.5h4.6
	C121.4,360.7,121.9,360.7,122.5,360.7z"/>
<path class="st1" d="M144.7,324.1c0,0.1-13.6,0.4-30.5,0.6s-30.5,0.2-30.5,0.1s13.6-0.4,30.5-0.6S144.7,323.9,144.7,324.1z"/>
<g class="st8">
	<path d="M81.8,324.8c8.4,5.8,20.4,8.6,30.6,7.5s20-4.5,29.6-7.9C123.3,325.1,100.6,324,81.8,324.8z"/>
</g>
<g class="st8">
	<path d="M122.5,224.6l21.4,25c0,0-6,26.9-1.9,35.1s12,31,12,31l3.6,31.4c0,0-28.6,23.5-31.8,70.7h19.7l29.6-78.3
		c0,0-13-71.5-12.6-72.6s-5-31.2-5-31.2L122.5,224.6z"/>
</g>
<path class="st5" d="M131,418l179.2,0.3c0,0-8.9-45-39.8-76.7l26-140.2l-44.7-18.6c0,0-4.6,15.6-31.2,14.8
	c-13.8-0.4-23.8-15-23.8-15l-18.4-1l-30.8,41.9c3.6,7.3,4.8,15.4,3.1,24.6c-2.6,6.2-4.7,11.2-4.8,17.2c-0.3,12.3,3.9,19,9.1,27.3
	l5.7,53.3C160.6,345.7,132.6,372.4,131,418z"/>
<path class="st5" d="M175.7,177.2l-47-25.7l-26.4,58.3c0,0,49.4,37.5,49.4,36.7s29.8-62.9,29.8-62.9l3.7-0.6L175.7,177.2z"/>
<path class="st1" d="M270.4,341.6c-37.1,0.1-109.9,3.4-109.9,3.4s-23.9,21.5-28.8,63.7l-0.7,9.4l179.2-0.1c-1.6-6-3.1-11.8-5.1-17.5
	C297.4,377.5,285.9,356.9,270.4,341.6z"/>
<path class="st2" d="M273.7,186.1c-11.4-3.4-16.9-1.5-16.9-1.5l-30.9,88.9l-28.8-94.8c0,0-7.8-8.2-16.2-10c-6.7-1.2-13.5-2-20.3-2.1
	L221,330l0,0l69.6-131C290.6,199,286.4,189.9,273.7,186.1z"/>
<path class="st1" d="M236.8,302.4c-0.1-0.1-0.2-0.3-0.2-0.4c-0.1-0.4-0.3-0.8-0.6-1.3c-0.5-1.1-1.1-2.7-1.9-4.7
	c-1.6-4-3.7-9.6-5.9-15.8s-4.2-11.8-5.6-15.9c-0.7-2-1.2-3.6-1.6-4.8c-0.2-0.5-0.3-1-0.4-1.3c-0.1-0.2-0.1-0.3-0.1-0.5
	c0.1,0.1,0.2,0.3,0.2,0.4c0.1,0.4,0.3,0.8,0.5,1.3c0.5,1.2,1,2.8,1.8,4.8c1.5,4.1,3.5,9.7,5.7,15.8l5.8,15.8l1.8,4.8l0.5,1.3
	C236.7,302,236.8,302.2,236.8,302.4z"/>
<g class="st6">
	<path class="st0" d="M268.4,185.1l-39.3,96.8l2.6,7.2l44-102.1C273.5,185.4,271,185.2,268.4,185.1z"/>
</g>
<g class="st7">
	<path class="st0" d="M275.8,187c0,0,4,1.9,7.9,4.3l-49.7,103.7l-2.2-5.8L275.8,187z"/>
</g>
<path class="st0" d="M283.6,191.2c0.1-0.1,6.5,4.2,7,7.8l-54.3,102.2l-2.4-6.3L283.6,191.2z"/>
<g class="st6">
	<path class="st0" d="M190.4,173l24.6,96.7l-3.6,6.8l-30-107.8C184.6,169.6,187.7,171.1,190.4,173z"/>
</g>
<g class="st7">
	<path class="st0" d="M181.4,168.7c-3.3-0.8-6.6-1.3-9.9-1.6l37,114.8l2.9-5.5L181.4,168.7z"/>
</g>
<path class="st0" d="M171.5,167.2c-0.1-0.1-10-0.7-10.9-0.7l44.7,121.4l3.3-5.9L171.5,167.2z"/>
<g class="st8">
	<path d="M275.6,315.3c-23.5-3.4-47.3-5.3-71.1-5.5l-26,4.8c8.3,6.3,19.2,8.1,29.6,8.5l54.5,2.1c3.4,0.1,7,0.2,9.9-1.4
		S277.5,318.1,275.6,315.3z"/>
</g>
<path class="st5" d="M265.3,419c-0.1,0-4.2-16.6-9.1-37.2s-8.7-37.3-8.6-37.3s4.2,16.6,9.1,37.2S265.4,418.9,265.3,419z"/>
<path class="st5" d="M297.6,383.2c-0.2,0-0.3,0-0.5-0.1l-1.3-0.3c-0.6-0.1-1.3-0.3-2.1-0.5s-1.7-0.5-2.7-0.8
	c-2.4-0.8-4.7-1.7-6.9-2.7c-2.7-1.3-5.4-2.7-8-4.2c-2.6-1.6-5.1-3.3-7.4-5.2c-1.9-1.5-3.8-3.2-5.5-4.9c-0.8-0.7-1.4-1.5-2-2.1
	s-1-1.1-1.4-1.6l-0.9-1c-0.1-0.1-0.2-0.2-0.3-0.4c0,0,0.1,0.1,0.4,0.3l0.9,1c0.4,0.4,0.9,1,1.5,1.5s1.3,1.3,2,2
	c1.5,1.5,3.4,3.1,5.6,4.8c4.7,3.7,9.9,6.9,15.4,9.4c2.5,1.1,4.9,2.1,6.8,2.8c1,0.4,1.9,0.6,2.7,0.9s1.5,0.5,2,0.6l1.3,0.4
	C297.3,383.2,297.4,383.2,297.6,383.2z"/>
<path class="st5" d="M168.7,358.6c0,0.2-0.1,0.3-0.2,0.5l-0.5,1.3c-0.2,0.5-0.5,1.2-0.9,1.9s-0.8,1.6-1.3,2.5
	c-1.2,2.2-2.5,4.2-3.9,6.2c-1.8,2.5-3.7,4.8-5.8,7c-2.1,2.2-4.3,4.2-6.6,6.1c-1.9,1.5-3.9,3-6,4.3c-0.9,0.6-1.7,1-2.4,1.5
	s-1.4,0.8-1.9,1l-1.2,0.6c-0.1,0.1-0.3,0.1-0.4,0.2c0,0,0.1-0.1,0.4-0.3l1.2-0.7c0.5-0.3,1.1-0.6,1.8-1.1s1.5-0.9,2.4-1.5
	c2-1.4,4-2.8,5.9-4.4c2.3-1.9,4.5-4,6.6-6.1c2-2.2,4-4.5,5.8-6.9c1.4-2,2.8-4,4-6.1c0.6-0.9,1-1.7,1.4-2.5s0.7-1.4,1-1.9
	s0.4-0.9,0.6-1.2C168.5,358.8,168.6,358.7,168.7,358.6z"/>
<path class="st1" d="M176.7,210.2c-0.1-0.3-0.3-0.5-0.4-0.8c-0.2-0.6-0.5-1.4-0.9-2.4c-0.8-2.1-1.9-5-3.3-8.7l-10.7-28.7
	c-0.4-1.1-0.8-2.2-1.2-3.2l-0.1-0.3h0.3c5.2-0.3,10.5,0.1,15.6,1.1c2.4,0.5,4.6,1,6.6,1.6c1.9,0.6,3.7,1.3,5.4,2.3
	c2.4,1.4,4.7,3.2,6.7,5.3l1.6,1.6c0.2,0.2,0.4,0.4,0.5,0.6c-0.2-0.1-0.4-0.3-0.6-0.5c-0.4-0.4-1-0.9-1.7-1.6c-2-2-4.3-3.7-6.7-5.1
	c-1.7-0.9-3.5-1.6-5.4-2.2c-2-0.6-4.3-1.1-6.6-1.5c-5.1-1-10.3-1.4-15.5-1.1l0.2-0.4l1.2,3.2l10.5,28.7l3.1,8.7l0.8,2.4
	C176.6,209.7,176.7,209.9,176.7,210.2z"/>
<path class="st1" d="M290.6,199c-1.1-1.5-2.3-3-3.6-4.5c-1.4-1.5-3-2.8-4.7-4c-2.1-1.4-4.4-2.5-6.7-3.5c-4.3-1.7-8.8-2.6-13.4-2.6
	c-1.4,0-2.8,0.1-4.2,0.2c-0.5,0.1-1,0.1-1.5,0.1c0.5-0.2,1-0.3,1.5-0.3c1.4-0.2,2.8-0.4,4.2-0.4c4.7-0.1,9.3,0.8,13.6,2.5
	c2.4,1,4.6,2.1,6.8,3.6c1.7,1.2,3.3,2.6,4.7,4.1c0.9,1,1.8,2.2,2.5,3.4c0.3,0.4,0.5,0.8,0.6,1C290.5,198.7,290.6,198.9,290.6,199z"
	/>
<path class="st3" d="M296.3,205.8c0,0,17.7,6.8,21.2,24.4s10,85,10,85l8.3,3.1c0,0,0,38.7-16.8,41.1c-5.5,0.8-22.4-7.1-27.5-18.5
	s-13-63.2-13-63.2L296.3,205.8z"/>
<path class="st5" d="M295.3,201.1c1.4,0.6,16.5,4.7,22.6,24.4c4.2,13.7,18.1,57.2,18.1,57.2l-63.8,6.9L295.3,201.1z"/>
<path class="st9" d="M312.9,315.7c0,0.1-1.4,0.5-3.3,1.7c-5.2,3.1-8.2,8.9-7.8,15c0.1,2.3,0.6,3.6,0.5,3.7c-0.2-0.3-0.3-0.6-0.4-0.9
	c-0.3-0.9-0.4-1.8-0.5-2.7c-0.6-6.2,2.5-12.3,8-15.3c0.8-0.5,1.7-0.8,2.5-1.1C312.2,315.8,312.6,315.7,312.9,315.7z"/>
<path class="st10" d="M170.9,210.1c0,0-7,105.1-5.2,105.2l118.5,5.9l25.7,1.3l2.2-109L170.9,210.1z"/>
<path class="st1" d="M170.9,210.1h0.6h1.9l7.6,0.2l28.7,0.6l102.3,2.4h0.2v0.2c-0.6,31.8-1.4,69-2.2,108.5v0.7h-0.2l-104.6-5.2
	l-23.5-1.2l-11.2-0.6l-2.8-0.1l-1.4-0.1h-0.7h-0.1c0,0-0.2,0-0.2-0.1c0-0.1-0.1-0.1-0.1-0.2c0-0.1,0-0.2-0.1-0.3
	c-0.1-1.5-0.2-3.1-0.1-4.6c0.1-6.1,0.4-11.9,0.6-17.5s0.6-11,0.8-16.1c1.1-20.6,2.2-37.2,3-48.7c0.4-5.7,0.7-10.2,0.9-13.2
	c0.1-1.5,0.2-2.7,0.3-3.4S170.9,210.1,170.9,210.1c0,0,0,0.4,0,1.2s-0.1,1.9-0.2,3.4c-0.2,3-0.5,7.5-0.8,13.2
	c-0.7,11.5-1.7,28.1-2.8,48.7c-0.3,5.1-0.5,10.5-0.8,16.1c-0.3,5.6-0.5,11.5-0.6,17.5c0,1.5,0,3,0.1,4.6c0,0.2,0.1,0.4,0.1,0.3h0.7
	l1.4,0.1l2.8,0.1l11.3,0.5l23.5,1.2l104.5,5.2l-0.2,0.2c0-0.1,0-0.3,0-0.5c0.8-39.5,1.6-76.6,2.2-108.5l0.2,0.2l-102.2-2.5
	l-28.8-0.7l-7.6-0.2l-2,0L170.9,210.1z"/>
<g transform="matrix(1, 0, 0, 1, -92.71067, 38.600723)">
</g>
<path class="st3" d="M287.7,285.7l16.2-9c1.5-0.8,3.2-1.3,4.9-1.3h15.7c0,0,7.6,5.5,7.9,8.1l4.6,28.5l-1.5,12.3l-10.5,4.9l-8.7-5.7
	l-3.9-14.6c0,0-8.5-2.8-10.2-3.5s-5.9-2.4-4.6-4.6l-10.9-1.1c0,0-4.6-1.7-0.9-5.5c0,0-2.2-3.3-1.5-5.2s2.8-0.4,2.8-0.4
	S286.6,286.3,287.7,285.7z"/>
<path class="st9" d="M319.9,306.4c-0.1,0-0.6-1.4-1.9-3.6c-0.7-1.2-1.7-2.3-2.9-3.1c-1.5-0.9-3.3-1.2-5-0.9l-9.6,1.4
	c-1.2,0.2-2.2,0.3-2.9,0.4c-0.4,0.1-0.7,0.1-1.1,0c0.3-0.1,0.7-0.2,1.1-0.3c0.7-0.1,1.7-0.3,2.9-0.5c2.5-0.4,5.8-1,9.6-1.5
	c0.9-0.1,1.9-0.1,2.8,0c0.9,0.1,1.7,0.5,2.5,1c1.2,0.9,2.2,2,2.9,3.4c0.5,0.9,0.9,1.8,1.2,2.7C319.7,305.7,319.8,306.1,319.9,306.4z
	"/>
<path class="st9" d="M318.8,294.8c-0.1-0.5-0.2-0.9-0.4-1.4c-0.5-1.2-1.5-2.1-2.6-2.6c-1.8-0.7-3.7-1-5.5-0.7
	c-2.1,0.2-4.5,0.5-7,0.9c-4.9,0.8-9.4,1.9-12.5,2.7l-3.8,0.9c-0.5,0.1-0.9,0.2-1.4,0.3c0.4-0.2,0.9-0.4,1.4-0.5
	c0.9-0.3,2.2-0.6,3.7-1.1c3.2-0.9,7.6-2,12.6-2.9c2.5-0.4,4.9-0.7,7-0.9c2-0.2,4,0,5.8,0.9c1.2,0.6,2.1,1.6,2.6,2.9
	c0.1,0.3,0.2,0.7,0.2,1.1C318.8,294.7,318.8,294.8,318.8,294.8z"/>
<path class="st9" d="M320.6,285c0,0-0.4-0.4-1.1-1c-1.1-0.8-2.3-1.3-3.6-1.5c-1.9-0.3-3.9-0.2-5.8,0.3c-2.2,0.5-4.6,1.1-7.1,1.7
	c-5,1.2-9.6,2.3-12.9,3l-3.9,0.9c-0.5,0.1-1,0.2-1.5,0.2c0.5-0.2,0.9-0.4,1.4-0.5l3.9-1c3.3-0.8,7.8-2,12.9-3.2
	c2.5-0.6,4.9-1.2,7.1-1.6c2-0.5,4-0.5,6-0.1c1.3,0.3,2.6,0.9,3.7,1.8c0.3,0.2,0.5,0.5,0.8,0.8C320.5,284.8,320.6,284.9,320.6,285z"
	/>
<path class="st9" d="M327.4,323.2c-0.2,0.2-0.5,0.4-0.8,0.5c-0.8,0.4-1.6,0.6-2.5,0.6c-1.3,0-2.6-0.2-3.7-0.7
	c-1.4-0.7-2.7-1.6-3.6-2.9c-1.7-2.2-2.9-4.8-3.5-7.5c-0.3-1.1-0.5-2.2-0.6-3.4c0.4,1.1,0.7,2.2,1,3.3c0.7,2.6,1.9,5.1,3.5,7.3
	c0.9,1.2,2.1,2.1,3.4,2.8c1.1,0.5,2.3,0.8,3.5,0.8C325.2,323.9,326.4,323.6,327.4,323.2z"/>
<path class="st2" d="M274.2,106.1c2-8,1.6-16.5-1.1-24.3C267,65.2,253.5,52.9,239.7,46c-9-4.7-16.6-7.1-26.3-3.9
	c1.7,1.1,7.7,4.2,8.5,6c2.2,0.2,0.9-0.1,5,1.1c7.3,2.2,12.3,6.4,19.6,12.1c7.3,5.7,10.9,13.8,14.7,22.3c3,6.7,1.1,11.4,1.1,12.8
	L274.2,106.1z"/>
<path class="st1" d="M213.3,44.7c0.6-0.1,1.5-0.3,2.6-0.4c3.2-0.4,6.4-0.4,9.6-0.1c4.8,0.4,9.4,1.8,13.7,3.9c5.2,2.7,10,6,14.3,10.1
	c4.3,4,8,8.5,11.3,13.4c1.4,2.1,2.6,4.4,3.6,6.7c0.8,2.1,1.4,4.2,1.7,6.5c0.5,3.2,0.6,6.4,0.2,9.6c-0.1,1.2-0.5,2.3-1.1,3.4
	c0,0,0.1-0.3,0.3-0.9c0.2-0.8,0.4-1.7,0.5-2.5c0.3-3.2,0.1-6.4-0.5-9.5c-0.3-2.2-0.9-4.3-1.8-6.3c-1-2.3-2.2-4.5-3.6-6.6
	c-3.2-4.8-7-9.2-11.2-13.2c-2.2-2.1-4.5-4-7-5.7c-2.3-1.6-4.6-3.1-7.1-4.3c-4.2-2.1-8.8-3.5-13.5-4c-3.2-0.3-6.4-0.3-9.5,0l-2.6,0.3
	c-0.3,0.1-0.6,0.1-0.9,0.1C212.7,44.9,213,44.8,213.3,44.7z"/>
<path class="st0" d="M174.3,89.7c-0.3,0.3-0.7,0.6-1,0.8c-2.8,2.8-4.7,6.4-5.5,10.4c-0.7,3.9-0.4,8,0.9,11.8c1,2.9,2.2,4.5,2,4.6
	c-0.4-0.3-0.6-0.7-0.9-1.1c-0.7-1-1.2-2.1-1.7-3.3c-1.5-3.8-1.9-8-1.2-12.1c0.8-4.1,2.8-7.8,5.9-10.6c0.3-0.3,0.7-0.6,1-0.8"/>
<path class="st2" d="M260.1,95.5c9.1-0.3,17.9,9,17.3,20.7c-0.1,2.7-0.6,5.3-1.3,7.8c-2.2,7.8-7.7,13.7-14.5,13.9
	c-9.2,0.3-16.9-9-17.3-20.7C243.8,105.5,251,95.8,260.1,95.5z"/>
<path class="st11" d="M268.2,97.9c5.9,0.6,9.9,9.7,8.9,20.4c-1,10.7-6.6,18.9-12.6,18.3c-5.9-0.6-9.9-9.7-8.9-20.4
	C256.6,105.5,262.3,97.4,268.2,97.9z"/>
<path class="st1" d="M259.2,95.2c3.5-0.2,7,0.5,10.1,2.1"/>
<path class="st1" d="M268.6,98.4c-1.9-0.1-3.7,0.5-5.2,1.7c-2.2,1.7-3.9,4-4.8,6.7c-1.3,3.2-2.2,6.5-2.5,10
	c-0.4,3.4-0.2,6.9,0.7,10.2c0.7,2.7,2.1,5.2,4,7.3c1.3,1.4,3.1,2.2,4.9,2.2c0.7,0,1.4-0.1,2-0.3c-0.1,0.1-0.3,0.2-0.5,0.3
	c-0.5,0.2-1,0.3-1.6,0.4c-2,0.1-3.9-0.7-5.3-2.1c-2-2.1-3.5-4.6-4.3-7.4c-1-3.4-1.2-7-0.8-10.5c0.4-3.5,1.3-6.9,2.6-10.2
	c1-2.7,2.8-5.1,5.1-6.8c1.6-1.2,3.6-1.7,5.5-1.5c0.5,0,1.1,0.2,1.6,0.3c0.3,0.1,0.5,0.3,0.5,0.3C270,98.5,269.3,98.5,268.6,98.4z"/>
<path class="st0" d="M247.8,126.3c-0.6-1.1-1-2.2-1.4-3.4c-2.5-7.8-0.8-16.4,4.5-22.7c0.8-0.9,1.7-1.8,2.6-2.6
	c0.3-0.3,0.7-0.6,1.1-0.8c0.1,0.1-1.4,1.3-3.2,3.7c-4.9,6.3-6.6,14.5-4.4,22.2c0.8,2.9,1.7,4.6,1.6,4.6
	C248.2,127.1,247.9,126.7,247.8,126.3z"/>
<g>
	<g>
		<path class="st10" d="M231,222.1l59.7,34.6c1.1,0.4,1.2,1.7,0.2,2.3l-53.2,43.7c-0.9,0.6-2.2,0-2.3-1l-6.4-78.3
			C228.8,222.5,229.9,221.7,231,222.1z"/>
		<defs>
			<filter id="Adobe_OpacityMaskFilter" filterUnits="userSpaceOnUse" x="137.5" y="196.8" width="165.2" height="112.8">
				
					<feColorMatrix  type="matrix" values="-1 0 0 0 1  0 -1 0 0 1  0 0 -1 0 1  0 0 0 1 0" color-interpolation-filters="sRGB" result="source"/>
			</filter>
		</defs>
		<mask maskUnits="userSpaceOnUse" x="137.5" y="196.8" width="165.2" height="112.8" id="SVGID_1_">
			<g class="st12">
				<path d="M231,222.1l59.7,34.6c1.1,0.4,1.2,1.7,0.2,2.3l-53.2,43.7c-0.9,0.6-2.2,0-2.3-1l-6.4-78.3
					C228.8,222.5,229.9,221.7,231,222.1z"/>
			</g>
		</mask>
		<g class="st13">
			<polygon class="st14" points="137.5,209.9 141.1,254.1 222.9,262 298.7,241.3 295,196.8 219.3,217.5 			"/>
			<polygon class="st15" points="141.8,262.6 145.1,301.8 226.9,309.7 302.6,289 299.4,249.6 223.6,270.2 			"/>
		</g>
	</g>
	<circle class="st16" cx="207.6" cy="245.6" r="9.6"/>
	<circle class="st16" cx="210.7" cy="283.3" r="9.6"/>
</g>
</svg>
